{
    "cinemas": [
        {
            "id": 26914,
            "mark": 0,
            "nm": "中影国际影城（横岗荣德店）",
            "sellPrice": "",
            "addr": "龙岗区横岗街道荣德国际广场3层，距离横岗地铁站C出口200米",
            "distance": "1.9km",
            "tag": {
                "allowRefund": 0,
                "buyout": 0,
                "cityCardTag": 0,
                "deal": 0,
                "endorse": 0,
                "giftTag": "",
                "hallType": [
                    "CGS中国巨幕厅",
                    "杜比全景声厅",
                    "4K厅"
                ],
                "hallTypeVOList": [
                    {
                        "name": "CGS中国巨幕厅",
                        "url": ""
                    },
                    {
                        "name": "杜比全景声厅",
                        "url": ""
                    },
                    {
                        "name": "4K厅",
                        "url": ""
                    }
                ],
                "sell": 1,
                "snack": 1,
                "vipTag": "折扣卡"
            },
            "promotion": {
                "cardPromotionTag": "开卡特惠，首单2张最高立减4元",
                "couponPromotionTag": "",
                "merchantActivityTag": "",
                "packShowActivityTag": "",
                "platformActivityTag": "",
                "starActivityTag": ""
            },
            "showTimes": ""
        },
        {
            "id": 16828,
            "mark": 0,
            "nm": "逸达国际影城（荷坳店）",
            "sellPrice": "",
            "addr": "龙岗区横岗街道金源路20号宝丰商场2楼",
            "distance": "2km",
            "tag": {
                "allowRefund": 1,
                "buyout": 0,
                "cityCardTag": 0,
                "deal": 0,
                "endorse": 1,
                "giftTag": "",
                "hallType": [],
                "hallTypeVOList": [],
                "sell": 1,
                "snack": 1,
                "vipTag": "折扣卡"
            },
            "promotion": {
                "cardPromotionTag": "",
                "couponPromotionTag": "",
                "merchantActivityTag": "",
                "packShowActivityTag": "",
                "platformActivityTag": "",
                "starActivityTag": ""
            },
            "showTimes": ""
        },
        {
            "id": 9420,
            "mark": 0,
            "nm": "星城影院（横岗店）",
            "sellPrice": "",
            "addr": "龙岗区龙岗大道与松柏路交叉口横岗大厦4楼",
            "distance": "2.4km",
            "tag": {
                "allowRefund": 1,
                "buyout": 0,
                "cityCardTag": 0,
                "deal": 0,
                "endorse": 1,
                "giftTag": "",
                "hallType": [],
                "hallTypeVOList": [],
                "sell": 1,
                "snack": 1,
                "vipTag": ""
            },
            "promotion": {
                "cardPromotionTag": "",
                "couponPromotionTag": "",
                "merchantActivityTag": "",
                "packShowActivityTag": "",
                "platformActivityTag": "",
                "starActivityTag": ""
            },
            "showTimes": ""
        },
        {
            "id": 104,
            "mark": 0,
            "nm": "金域电影城（横岗志健店）",
            "sellPrice": "",
            "addr": "龙岗区横岗街道茂盛路1号志健时代广场4楼",
            "distance": "2.4km",
            "tag": {
                "allowRefund": 1,
                "buyout": 0,
                "cityCardTag": 0,
                "deal": 0,
                "endorse": 1,
                "giftTag": "",
                "hallType": [],
                "hallTypeVOList": [],
                "sell": 1,
                "snack": 1,
                "vipTag": "折扣卡"
            },
            "promotion": {
                "cardPromotionTag": "开卡特惠，首单2张最高立减2元",
                "couponPromotionTag": "",
                "merchantActivityTag": "",
                "packShowActivityTag": "",
                "platformActivityTag": "",
                "starActivityTag": ""
            },
            "showTimes": ""
        },
        {
            "id": 5544,
            "mark": 0,
            "nm": "博纳国际影城（龙岗大运店）",
            "sellPrice": "",
            "addr": "龙岗区爱南路666号星河时代COCOPark4楼（大运地铁站C出口）",
            "distance": "3km",
            "tag": {
                "allowRefund": 1,
                "buyout": 0,
                "cityCardTag": 0,
                "deal": 0,
                "endorse": 1,
                "giftTag": "",
                "hallType": [
                    "CGS中国巨幕厅"
                ],
                "hallTypeVOList": [
                    {
                        "name": "CGS中国巨幕厅",
                        "url": ""
                    }
                ],
                "sell": 1,
                "snack": 1,
                "vipTag": "折扣卡"
            },
            "promotion": {
                "cardPromotionTag": "开卡特惠，首单1张最高立减2元",
                "couponPromotionTag": "",
                "merchantActivityTag": "",
                "packShowActivityTag": "",
                "platformActivityTag": "",
                "starActivityTag": ""
            },
            "showTimes": ""
        },
        {
            "id": 5244,
            "mark": 0,
            "nm": "太平洋影城（深圳新城汇店）",
            "sellPrice": "",
            "addr": "龙岗区横岗街道红棉路与横岗一号路交汇处新城汇五楼（近横岗一号路）",
            "distance": "3.1km",
            "tag": {
                "allowRefund": 1,
                "buyout": 0,
                "cityCardTag": 0,
                "deal": 0,
                "endorse": 1,
                "giftTag": "",
                "hallType": [],
                "hallTypeVOList": [],
                "sell": 1,
                "snack": 1,
                "vipTag": "折扣卡"
            },
            "promotion": {
                "cardPromotionTag": "",
                "couponPromotionTag": "",
                "merchantActivityTag": "",
                "packShowActivityTag": "",
                "platformActivityTag": "",
                "starActivityTag": ""
            },
            "showTimes": ""
        },
        {
            "id": 24345,
            "mark": 0,
            "nm": "君胜国际影城（深圳大康店）",
            "sellPrice": "",
            "addr": "龙岗区横岗街道大康安兴路33号万骏隆购物广场4层",
            "distance": "3.6km",
            "tag": {
                "allowRefund": 1,
                "buyout": 0,
                "cityCardTag": 0,
                "deal": 0,
                "endorse": 1,
                "giftTag": "",
                "hallType": [],
                "hallTypeVOList": [],
                "sell": 1,
                "snack": 1,
                "vipTag": "折扣卡"
            },
            "promotion": {
                "cardPromotionTag": "开卡特惠，首单2张最高立减4元",
                "couponPromotionTag": "",
                "merchantActivityTag": "",
                "packShowActivityTag": "",
                "platformActivityTag": "",
                "starActivityTag": ""
            },
            "showTimes": ""
        },
        {
            "id": 13056,
            "mark": 0,
            "nm": "万众国际影城（横岗巨幕店）",
            "sellPrice": "",
            "addr": "龙岗区龙岗大道麟恒中心广场3楼（圣德堡酒店对面，麟恒沃尔玛楼上）",
            "distance": "4.5km",
            "tag": {
                "allowRefund": 1,
                "buyout": 0,
                "cityCardTag": 0,
                "deal": 0,
                "endorse": 1,
                "giftTag": "",
                "hallType": [
                    "CGS中国巨幕厅",
                    "杜比全景声厅"
                ],
                "hallTypeVOList": [
                    {
                        "name": "CGS中国巨幕厅",
                        "url": ""
                    },
                    {
                        "name": "杜比全景声厅",
                        "url": ""
                    }
                ],
                "sell": 1,
                "snack": 1,
                "vipTag": "折扣卡"
            },
            "promotion": {
                "cardPromotionTag": "",
                "couponPromotionTag": "",
                "merchantActivityTag": "",
                "packShowActivityTag": "",
                "platformActivityTag": "",
                "starActivityTag": ""
            },
            "showTimes": ""
        },
        {
            "id": 9712,
            "mark": 0,
            "nm": "橙天嘉禾影城深圳达梦店",
            "sellPrice": "",
            "addr": "龙岗区宝荷大道81号尖莎咀购物中心（沃尔玛）三楼（沃尔玛）",
            "distance": "5.8km",
            "tag": {
                "allowRefund": 1,
                "buyout": 0,
                "cityCardTag": 0,
                "deal": 0,
                "endorse": 1,
                "giftTag": "",
                "hallType": [],
                "hallTypeVOList": [],
                "sell": 1,
                "snack": 1,
                "vipTag": "折扣卡"
            },
            "promotion": {
                "cardPromotionTag": "开卡特惠，首单1张最高立减10元",
                "couponPromotionTag": "",
                "merchantActivityTag": "",
                "packShowActivityTag": "",
                "platformActivityTag": "",
                "starActivityTag": ""
            },
            "showTimes": ""
        },
        {
            "id": 9726,
            "mark": 0,
            "nm": "星美影商城（万科广场店）",
            "sellPrice": "",
            "addr": "龙岗区龙翔大道7188号万科广场L3-24（吉祥地铁站C出口）",
            "distance": "6km",
            "tag": {
                "allowRefund": 1,
                "buyout": 0,
                "cityCardTag": 0,
                "deal": 0,
                "endorse": 1,
                "giftTag": "",
                "hallType": [],
                "hallTypeVOList": [],
                "sell": 1,
                "snack": 0,
                "vipTag": ""
            },
            "promotion": {
                "cardPromotionTag": "",
                "couponPromotionTag": "",
                "merchantActivityTag": "",
                "packShowActivityTag": "",
                "platformActivityTag": "",
                "starActivityTag": ""
            },
            "showTimes": ""
        },
        {
            "id": 26712,
            "mark": 0,
            "nm": "星河寰宇影城（龙岗iCO店）",
            "sellPrice": "",
            "addr": "龙岗区青林路与吉祥路交汇处星河iCO购物中心5楼",
            "distance": "6.2km",
            "tag": {
                "allowRefund": 1,
                "buyout": 0,
                "cityCardTag": 0,
                "deal": 0,
                "endorse": 1,
                "giftTag": "",
                "hallType": [],
                "hallTypeVOList": [],
                "sell": 1,
                "snack": 1,
                "vipTag": ""
            },
            "promotion": {
                "cardPromotionTag": "",
                "couponPromotionTag": "",
                "merchantActivityTag": "",
                "packShowActivityTag": "",
                "platformActivityTag": "",
                "starActivityTag": ""
            },
            "showTimes": ""
        },
        {
            "id": 27196,
            "mark": 0,
            "nm": "SFC上影影城（龙岗中心城店）",
            "sellPrice": "",
            "addr": "龙岗区禾田路52号",
            "distance": "6.2km",
            "tag": {
                "allowRefund": 1,
                "buyout": 0,
                "cityCardTag": 0,
                "deal": 0,
                "endorse": 1,
                "giftTag": "",
                "hallType": [
                    "杜比全景声厅"
                ],
                "hallTypeVOList": [
                    {
                        "name": "杜比全景声厅",
                        "url": ""
                    }
                ],
                "sell": 1,
                "snack": 1,
                "vipTag": "折扣卡"
            },
            "promotion": {
                "cardPromotionTag": "",
                "couponPromotionTag": "",
                "merchantActivityTag": "",
                "packShowActivityTag": "",
                "platformActivityTag": "",
                "starActivityTag": ""
            },
            "showTimes": ""
        },
        {
            "id": 96,
            "mark": 0,
            "nm": "龙岗百誉（龙岗中心店）",
            "sellPrice": "",
            "addr": "龙岗区龙城街道中心城龙翔大道龙岗世贸中心（D区四楼）",
            "distance": "6.4km",
            "tag": {
                "allowRefund": 1,
                "buyout": 0,
                "cityCardTag": 0,
                "deal": 0,
                "endorse": 1,
                "giftTag": "",
                "hallType": [
                    "4DX厅"
                ],
                "hallTypeVOList": [
                    {
                        "name": "4DX厅",
                        "url": ""
                    }
                ],
                "sell": 1,
                "snack": 1,
                "vipTag": "折扣卡"
            },
            "promotion": {
                "cardPromotionTag": "开卡特惠，首单2张最高立减4元",
                "couponPromotionTag": "",
                "merchantActivityTag": "",
                "packShowActivityTag": "",
                "platformActivityTag": "",
                "starActivityTag": ""
            },
            "showTimes": ""
        },
        {
            "id": 28291,
            "mark": 0,
            "nm": "万象影城（龙岗天安数码城IMAX激光店）",
            "sellPrice": "",
            "addr": "龙岗区龙城街道黄阁坑社区黄阁坑448号天安活力广场1号商业楼1168",
            "distance": "6.4km",
            "tag": {
                "allowRefund": 1,
                "buyout": 0,
                "cityCardTag": 0,
                "deal": 0,
                "endorse": 1,
                "giftTag": "",
                "hallType": [
                    "IMAX厅"
                ],
                "hallTypeVOList": [
                    {
                        "name": "IMAX厅",
                        "url": ""
                    }
                ],
                "sell": 1,
                "snack": 0,
                "vipTag": ""
            },
            "promotion": {
                "cardPromotionTag": "",
                "couponPromotionTag": "",
                "merchantActivityTag": "",
                "packShowActivityTag": "",
                "platformActivityTag": "",
                "starActivityTag": ""
            },
            "showTimes": ""
        },
        {
            "id": 25630,
            "mark": 0,
            "nm": "华夏星光国际影城（龙岗红立方店）",
            "sellPrice": "",
            "addr": "龙岗区三馆东路深圳书城龙岗城北区二层",
            "distance": "6.5km",
            "tag": {
                "allowRefund": 1,
                "buyout": 0,
                "cityCardTag": 0,
                "deal": 0,
                "endorse": 1,
                "giftTag": "",
                "hallType": [
                    "杜比全景声厅"
                ],
                "hallTypeVOList": [
                    {
                        "name": "杜比全景声厅",
                        "url": ""
                    }
                ],
                "sell": 1,
                "snack": 1,
                "vipTag": "折扣卡"
            },
            "promotion": {
                "cardPromotionTag": "",
                "couponPromotionTag": "",
                "merchantActivityTag": "",
                "packShowActivityTag": "",
                "platformActivityTag": "",
                "starActivityTag": ""
            },
            "showTimes": ""
        },
        {
            "id": 25416,
            "mark": 0,
            "nm": "中影星美国际影城（龙城万科里店）",
            "sellPrice": "",
            "addr": "龙岗区龙城街道龙岗大道3999号龙城万科里B1-01中影星美国际影城",
            "distance": "6.6km",
            "tag": {
                "allowRefund": 1,
                "buyout": 0,
                "cityCardTag": 0,
                "deal": 0,
                "endorse": 1,
                "giftTag": "",
                "hallType": [
                    "杜比全景声厅"
                ],
                "hallTypeVOList": [
                    {
                        "name": "杜比全景声厅",
                        "url": ""
                    }
                ],
                "sell": 1,
                "snack": 1,
                "vipTag": "折扣卡"
            },
            "promotion": {
                "cardPromotionTag": "开卡特惠，首单2张最高立减4元",
                "couponPromotionTag": "",
                "merchantActivityTag": "",
                "packShowActivityTag": "",
                "platformActivityTag": "",
                "starActivityTag": ""
            },
            "showTimes": ""
        },
        {
            "id": 23845,
            "mark": 0,
            "nm": "中影泰得影城（龙岗盛世店）",
            "sellPrice": "",
            "addr": "龙岗区龙城街道中心城爱龙路81号中影泰得影城（妇幼保健院住院部斜对面）",
            "distance": "7km",
            "tag": {
                "allowRefund": 1,
                "buyout": 0,
                "cityCardTag": 0,
                "deal": 0,
                "endorse": 1,
                "giftTag": "",
                "hallType": [],
                "hallTypeVOList": [],
                "sell": 1,
                "snack": 1,
                "vipTag": "折扣卡"
            },
            "promotion": {
                "cardPromotionTag": "",
                "couponPromotionTag": "",
                "merchantActivityTag": "",
                "packShowActivityTag": "",
                "platformActivityTag": "",
                "starActivityTag": ""
            },
            "showTimes": ""
        },
        {
            "id": 8597,
            "mark": 0,
            "nm": "ONE影城（世纪广场店）",
            "sellPrice": "",
            "addr": "龙岗区中心城龙平西路祥情世纪广场二楼（爱龙路18号瑞华园）",
            "distance": "7.1km",
            "tag": {
                "allowRefund": 1,
                "buyout": 0,
                "cityCardTag": 0,
                "deal": 0,
                "endorse": 1,
                "giftTag": "",
                "hallType": [],
                "hallTypeVOList": [],
                "sell": 1,
                "snack": 1,
                "vipTag": "折扣卡"
            },
            "promotion": {
                "cardPromotionTag": "开卡特惠，首单2张最高立减4元",
                "couponPromotionTag": "",
                "merchantActivityTag": "",
                "packShowActivityTag": "",
                "platformActivityTag": "",
                "starActivityTag": ""
            },
            "showTimes": ""
        },
        {
            "id": 16704,
            "mark": 0,
            "nm": "中影百纳国际影城",
            "sellPrice": "",
            "addr": "龙岗区龙平西路首创八意府六栋四楼",
            "distance": "7.1km",
            "tag": {
                "allowRefund": 1,
                "buyout": 0,
                "cityCardTag": 0,
                "deal": 0,
                "endorse": 1,
                "giftTag": "",
                "hallType": [],
                "hallTypeVOList": [],
                "sell": 1,
                "snack": 1,
                "vipTag": "折扣卡"
            },
            "promotion": {
                "cardPromotionTag": "开卡特惠，首单2张最高立减6元",
                "couponPromotionTag": "",
                "merchantActivityTag": "",
                "packShowActivityTag": "",
                "platformActivityTag": "",
                "starActivityTag": ""
            },
            "showTimes": ""
        },
        {
            "id": 15971,
            "mark": 0,
            "nm": "宝能影城（龙岗店）",
            "sellPrice": "",
            "addr": "龙岗区龙岗中心区龙城街道建设路28号宝能allcity购物中心龙岗店",
            "distance": "7.2km",
            "tag": {
                "allowRefund": 1,
                "buyout": 0,
                "cityCardTag": 0,
                "deal": 0,
                "endorse": 1,
                "giftTag": "",
                "hallType": [],
                "hallTypeVOList": [],
                "sell": 1,
                "snack": 1,
                "vipTag": "折扣卡"
            },
            "promotion": {
                "cardPromotionTag": "",
                "couponPromotionTag": "",
                "merchantActivityTag": "",
                "packShowActivityTag": "",
                "platformActivityTag": "",
                "starActivityTag": ""
            },
            "showTimes": ""
        }
    ],
    "ct_pois": [
        {
            "ct_poi": "936879945111165696_a26914_c0",
            "poiid": 191542239
        },
        {
            "ct_poi": "936879945111165696_a16828_c1",
            "poiid": 150310654
        },
        {
            "ct_poi": "936879945111165696_a9420_c2",
            "poiid": 4448643
        },
        {
            "ct_poi": "936879945111165696_a104_c3",
            "poiid": 1436345
        },
        {
            "ct_poi": "936879945111165696_a5544_c4",
            "poiid": 2431925
        },
        {
            "ct_poi": "936879945111165696_a5244_c5",
            "poiid": 2373746
        },
        {
            "ct_poi": "936879945111165696_a24345_c6",
            "poiid": 164455572
        },
        {
            "ct_poi": "936879945111165696_a13056_c7",
            "poiid": 5944561
        },
        {
            "ct_poi": "936879945111165696_a9712_c8",
            "poiid": 5109831
        },
        {
            "ct_poi": "936879945111165696_a9726_c9",
            "poiid": 4432009
        },
        {
            "ct_poi": "936879945111165696_a26712_c10",
            "poiid": 191307456
        },
        {
            "ct_poi": "936879945111165696_a27196_c11",
            "poiid": 191222260
        },
        {
            "ct_poi": "936879945111165696_a96_c12",
            "poiid": 1171046
        },
        {
            "ct_poi": "936879945111165696_a28291_c13",
            "poiid": 1722986471
        },
        {
            "ct_poi": "936879945111165696_a25630_c14",
            "poiid": 181439591
        },
        {
            "ct_poi": "936879945111165696_a25416_c15",
            "poiid": 177729695
        },
        {
            "ct_poi": "936879945111165696_a23845_c16",
            "poiid": 160017610
        },
        {
            "ct_poi": "936879945111165696_a8597_c17",
            "poiid": 4569490
        },
        {
            "ct_poi": "936879945111165696_a16704_c18",
            "poiid": 103926074
        },
        {
            "ct_poi": "936879945111165696_a15971_c19",
            "poiid": 85973787
        }
    ],
    "paging": {
        "hasMore": true,
        "limit": 20,
        "offset": 0,
        "total": 326
    },
    "resId": "1587535927883"
}